generated/Hello.vcd
$date
2022-11-09T13:35+0000
$end
$version
0.2
$end
$comment

$end
$timescale 1ns  $end
$scope module Hello $end
 $var wire 32 " io_testerDataMemDataRead $end
 $var wire 2 $ stateReg $end
 $var wire 2 & _GEN_16 $end
 $var wire 2 ( _GEN_2 $end
 $var wire 16 ) _GEN_10 $end
 $var wire 1 + _T $end
 $var wire 1 - io_testerDataMemWriteEnable $end
 $var wire 32 . dataReg $end
 $var wire 32 0 _GEN_19 $end
 $var wire 16 5 _GEN_5 $end
 $var wire 1 6 _GEN_13 $end
 $var wire 2 9 _GEN_8 $end
 $var wire 2 > _GEN_12 $end
 $var wire 32 ? io_testerDataMemDataWrite $end
 $var wire 16 @ _GEN_7 $end
 $var wire 1 A _GEN_15 $end
 $var wire 1 B io_start $end
 $var wire 1 F io_testerDataMemEnable $end
 $var wire 16 G addressReg $end
 $var wire 16 H _GEN_1 $end
 $var wire 2 N _GEN_4 $end
 $var wire 1 Q clock $end
 $var wire 1 S dataMemory $end
 $var wire 16 T io_testerDataMemAddress $end
 $var wire 16 W _GEN_17 $end
 $var wire 1 X io_done $end
 $var wire 32 [ _GEN_11 $end
 $var wire 16 ` _GEN_14 $end
 $var wire 2 a _GEN_0 $end
 $var wire 1 b _GEN_9 $end
 $var wire 1 d reset $end
  $scope module dataMemory $end
   $var wire 32 ! _GEN_11 $end
   $var wire 32 % io_testerDataWrite $end
   $var wire 1 , clock $end
   $var wire 1 / io_testerEnable $end
   $var wire 32 : io_dataRead $end
   $var wire 32 ; io_dataWrite $end
   $var wire 1 D io_testerWriteEnable $end
   $var wire 32 E _GEN_5 $end
   $var wire 16 M io_address $end
   $var wire 1 O io_writeEnable $end
   $var wire 16 Y io_testerAddress $end
   $var wire 32 Z memory $end
   $var wire 32 ^ io_testerDataRead $end
    $scope module memory $end
      $scope module _T_1 $end
       $var wire 16 # addr $end
       $var wire 16 * pipeline_addr_0 $end
       $var wire 1 1 en $end
       $var wire 32 = data $end
       $var wire 32 J pipeline_data_0 $end
       $var wire 1 V pipeline_valid_0 $end
       $var wire 1 ] valid $end
       $var wire 1 _ mask $end
       $var wire 1 e clk $end
      $upscope $end
      $scope module _T $end
       $var wire 1 ' clk $end
       $var wire 16 L addr $end
       $var wire 1 P en $end
       $var wire 32 c data $end
      $upscope $end
      $scope module _T_3 $end
       $var wire 1 2 pipeline_valid_0 $end
       $var wire 1 3 en $end
       $var wire 1 4 mask $end
       $var wire 16 7 pipeline_addr_0 $end
       $var wire 16 C addr $end
       $var wire 1 K clk $end
       $var wire 32 U pipeline_data_0 $end
       $var wire 32 \ data $end
       $var wire 1 f valid $end
      $upscope $end
      $scope module _T_2 $end
       $var wire 1 8 clk $end
       $var wire 16 < addr $end
       $var wire 32 I data $end
       $var wire 1 R en $end
      $upscope $end
    $upscope $end
  $upscope $end
$upscope $end
$enddefinitions $end
$dumpvars
0X
b00 a
b0000000000000000 H
b00000000000000000000000000000000 [
0R
b00 >
b00000000000000000000000000000000 !
b0000000000000000 Y
b00000000000000000000000000000000 U
0V
b0000000000000000 )
b00000000000000000000000000000000 :
0e
0P
b0000000000000000 @
b00000000000000000000000000000000 I
03
b0000000000000000 #
b0000000000000000 W
b00000000000000000000000000000000 .
0-
1_
b0000000000000000 <
b00000000000000000000000000000000 E
b00000000000000000000000000000000 0
0/
0D
b00000000000000000000000000000000 \
0F
01
b0000000000000000 M
b00000000000000000000000000000000 ^
0]
0+
b0000000000000000 G
0B
b00000000000000000000000000000000 ;
b0000000000000000 *
b00 &
b00000000000000000000000000000000 Z
b00000000000000000000000000000000 =
0'
b00 (
b0000000000000000 `
14
0S
b0000000000000000 C
b00000000000000000000000000000000 ?
06
b00000000000000000000000000000000 "
08
b00 9
b00 $
0d
b0000000000000000 T
0O
02
0f
0Q
b00000000000000000000000000000000 J
0K
0b
b00000000000000000000000000000000 c
b0000000000000000 5
b00 N
b0000000000000000 L
b0000000000000000 7
0A
0,
b00000000000000000000000000000000 %
$end
#0
1d
1R
1+
b01 (
#1
1Q
18
1e
1K
1'
1,
#6
0Q
08
0e
0K
0'
0,
#11
1Q
18
1e
1K
1'
1,
#16
0Q
08
0e
0K
0'
0,
#21
1Q
18
1e
1K
1'
1,
#26
0Q
08
0e
0K
0'
0,
#31
1Q
18
1e
1K
1'
1,
#36
0Q
08
0e
0K
0'
0,
#41
1Q
18
1e
1K
1'
1,
#46
0Q
1-
0R
1D
0K
0'
1/
1F
11
0d
08
0e
1]
0,
1P
#51
1Q
18
1V
1e
1K
1'
1,
#56
b0000000000000001 T
0Q
08
b0000000000000001 Y
b0000000000000001 #
0e
0K
0'
b0000000000000001 L
0,
#61
1Q
18
1e
b0000000000000001 *
1K
1'
1,
#66
b0000000000000010 T
0Q
08
b0000000000000010 Y
b0000000000000010 #
0e
0K
0'
b0000000000000010 L
0,
#71
1Q
18
1e
b0000000000000010 *
1K
1'
1,
#76
b0000000000000011 T
0Q
08
b0000000000000011 Y
b0000000000000011 #
0e
0K
0'
b0000000000000011 L
0,
#81
1Q
18
1e
b0000000000000011 *
1K
1'
1,
#86
b0000000000000100 T
0Q
08
b0000000000000100 Y
b0000000000000100 #
0e
0K
0'
b0000000000000100 L
0,
#91
1Q
18
1e
b0000000000000100 *
1K
1'
1,
#96
b0000000000000101 T
0Q
08
b0000000000000101 Y
b0000000000000101 #
0e
0K
0'
b0000000000000101 L
0,
#101
1Q
18
1e
b0000000000000101 *
1K
1'
1,
#106
b0000000000000110 T
0Q
08
b0000000000000110 Y
b0000000000000110 #
0e
0K
0'
b0000000000000110 L
0,
#111
1Q
18
1e
b0000000000000110 *
1K
1'
1,
#116
b0000000000000111 T
0Q
08
b0000000000000111 Y
b0000000000000111 #
0e
0K
0'
b0000000000000111 L
0,
#121
1Q
18
1e
b0000000000000111 *
1K
1'
1,
#126
b0000000000001000 T
0Q
08
b0000000000001000 Y
b0000000000001000 #
0e
0K
0'
b0000000000001000 L
0,
#131
1Q
18
1e
b0000000000001000 *
1K
1'
1,
#136
b0000000000001001 T
0Q
08
b0000000000001001 Y
b0000000000001001 #
0e
0K
0'
b0000000000001001 L
0,
#141
1Q
18
1e
b0000000000001001 *
1K
1'
1,
#146
b0000000000001010 T
0Q
08
b0000000000001010 Y
b0000000000001010 #
0e
0K
0'
b0000000000001010 L
0,
#151
1Q
18
1e
b0000000000001010 *
1K
1'
1,
#156
b0000000000001011 T
0Q
08
b0000000000001011 Y
b0000000000001011 #
0e
0K
0'
b0000000000001011 L
0,
#161
1Q
18
1e
b0000000000001011 *
1K
1'
1,
#166
b0000000000001100 T
0Q
08
b0000000000001100 Y
b0000000000001100 #
0e
0K
0'
b0000000000001100 L
0,
#171
1Q
18
1e
b0000000000001100 *
1K
1'
1,
#176
b0000000000001101 T
0Q
08
b0000000000001101 Y
b0000000000001101 #
0e
0K
0'
b0000000000001101 L
0,
#181
1Q
18
1e
b0000000000001101 *
1K
1'
1,
#186
b0000000000001110 T
0Q
08
b0000000000001110 Y
b0000000000001110 #
0e
0K
0'
b0000000000001110 L
0,
#191
1Q
18
1e
b0000000000001110 *
1K
1'
1,
#196
b0000000000001111 T
0Q
08
b0000000000001111 Y
b0000000000001111 #
0e
0K
0'
b0000000000001111 L
0,
#201
1Q
18
1e
b0000000000001111 *
1K
1'
1,
#206
b0000000000010000 T
0Q
08
b0000000000010000 Y
b0000000000010000 #
0e
0K
0'
b0000000000010000 L
0,
#211
1Q
18
1e
b0000000000010000 *
1K
1'
1,
#216
b0000000000010001 T
0Q
08
b0000000000010001 Y
b0000000000010001 #
0e
0K
0'
b0000000000010001 L
0,
#221
1Q
18
1e
b0000000000010001 *
1K
1'
1,
#226
b0000000000010010 T
0Q
08
b0000000000010010 Y
b0000000000010010 #
0e
0K
0'
b0000000000010010 L
0,
#231
1Q
18
1e
b0000000000010010 *
1K
1'
1,
#236
b0000000000010011 T
0Q
08
b0000000000010011 Y
b0000000000010011 #
0e
0K
0'
b0000000000010011 L
0,
#241
1Q
18
1e
b0000000000010011 *
1K
1'
1,
#246
b0000000000010100 T
0Q
08
b0000000000010100 Y
b0000000000010100 #
0e
0K
0'
b0000000000010100 L
0,
#251
1Q
18
1e
b0000000000010100 *
1K
1'
1,
#256
b0000000000010101 T
0Q
08
b0000000000010101 Y
b0000000000010101 #
0e
0K
0'
b0000000000010101 L
0,
#261
1Q
18
1e
b0000000000010101 *
1K
1'
1,
#266
b0000000000010110 T
0Q
08
b0000000000010110 Y
b0000000000010110 #
0e
0K
0'
b0000000000010110 L
0,
#271
1Q
18
1e
b0000000000010110 *
1K
1'
1,
#276
b0000000000010111 T
0Q
08
b0000000000010111 Y
b0000000000010111 #
0e
0K
0'
b0000000000010111 L
0,
#281
1Q
18
1e
b0000000000010111 *
1K
1'
1,
#286
b0000000000011000 T
0Q
08
b0000000000011000 Y
b0000000000011000 #
0e
0K
0'
b0000000000011000 L
0,
#291
1Q
18
1e
b0000000000011000 *
1K
1'
1,
#296
b0000000000011001 T
0Q
08
b0000000000011001 Y
b0000000000011001 #
0e
0K
0'
b0000000000011001 L
0,
#301
1Q
18
1e
b0000000000011001 *
1K
1'
1,
#306
b0000000000011010 T
0Q
08
b0000000000011010 Y
b0000000000011010 #
0e
0K
0'
b0000000000011010 L
0,
#311
1Q
18
1e
b0000000000011010 *
1K
1'
1,
#316
b0000000000011011 T
0Q
08
b0000000000011011 Y
b0000000000011011 #
0e
0K
0'
b0000000000011011 L
0,
#321
1Q
18
1e
b0000000000011011 *
1K
1'
1,
#326
b0000000000011100 T
0Q
08
b0000000000011100 Y
b0000000000011100 #
0e
0K
0'
b0000000000011100 L
0,
#331
1Q
18
1e
b0000000000011100 *
1K
1'
1,
#336
b0000000000011101 T
0Q
08
b0000000000011101 Y
b0000000000011101 #
0e
0K
0'
b0000000000011101 L
0,
#341
1Q
18
1e
b0000000000011101 *
1K
1'
1,
#346
b0000000000011110 T
0Q
08
b0000000000011110 Y
b0000000000011110 #
0e
0K
0'
b0000000000011110 L
0,
#351
1Q
18
1e
b0000000000011110 *
1K
1'
1,
#356
b0000000000011111 T
0Q
08
b0000000000011111 Y
b0000000000011111 #
0e
0K
0'
b0000000000011111 L
0,
#361
1Q
18
1e
b0000000000011111 *
1K
1'
1,
#366
b0000000000100000 T
0Q
08
b0000000000100000 Y
b0000000000100000 #
0e
0K
0'
b0000000000100000 L
0,
#371
1Q
18
1e
b0000000000100000 *
1K
1'
1,
#376
b0000000000100001 T
0Q
08
b0000000000100001 Y
b0000000000100001 #
0e
0K
0'
b0000000000100001 L
0,
#381
1Q
18
1e
b0000000000100001 *
1K
1'
1,
#386
b0000000000100010 T
0Q
08
b0000000000100010 Y
b0000000000100010 #
0e
0K
0'
b0000000000100010 L
0,
#391
1Q
18
1e
b0000000000100010 *
1K
1'
1,
#396
b0000000000100011 T
0Q
08
b0000000000100011 Y
b0000000000100011 #
0e
0K
0'
b0000000000100011 L
0,
#401
1Q
18
1e
b0000000000100011 *
1K
1'
1,
#406
b0000000000100100 T
0Q
08
b0000000000100100 Y
b0000000000100100 #
0e
0K
0'
b0000000000100100 L
0,
#411
1Q
18
1e
b0000000000100100 *
1K
1'
1,
#416
b0000000000100101 T
0Q
08
b0000000000100101 Y
b0000000000100101 #
0e
0K
0'
b0000000000100101 L
0,
#421
1Q
18
1e
b0000000000100101 *
1K
1'
1,
#426
b0000000000100110 T
0Q
08
b0000000000100110 Y
b0000000000100110 #
0e
0K
0'
b0000000000100110 L
0,
#431
1Q
18
1e
b0000000000100110 *
1K
1'
1,
#436
b0000000000100111 T
0Q
08
b0000000000100111 Y
b0000000000100111 #
0e
0K
0'
b0000000000100111 L
0,
#441
1Q
18
1e
b0000000000100111 *
1K
1'
1,
#446
b0000000000101000 T
0Q
08
b0000000000101000 Y
b0000000000101000 #
0e
0K
0'
b0000000000101000 L
0,
#451
1Q
18
1e
b0000000000101000 *
1K
1'
1,
#456
b0000000000101001 T
0Q
08
b0000000000101001 Y
b0000000000101001 #
0e
0K
0'
b0000000000101001 L
0,
#461
1Q
18
1e
b0000000000101001 *
1K
1'
1,
#466
b0000000000101010 T
0Q
08
b0000000000101010 Y
b0000000000101010 #
0e
0K
0'
b0000000000101010 L
0,
#471
1Q
18
1e
b0000000000101010 *
1K
1'
1,
#476
b0000000000101011 T
0Q
08
b0000000000101011 Y
b0000000000101011 #
0e
0K
0'
b0000000000101011 L
0,
#481
1Q
18
1e
b0000000000101011 *
1K
1'
1,
#486
b0000000000101100 T
0Q
08
b0000000000101100 Y
b0000000000101100 #
0e
0K
0'
b0000000000101100 L
0,
#491
1Q
18
1e
b0000000000101100 *
1K
1'
1,
#496
b0000000000101101 T
0Q
08
b0000000000101101 Y
b0000000000101101 #
0e
0K
0'
b0000000000101101 L
0,
#501
1Q
18
1e
b0000000000101101 *
1K
1'
1,
#506
b0000000000101110 T
0Q
08
b0000000000101110 Y
b0000000000101110 #
0e
0K
0'
b0000000000101110 L
0,
#511
1Q
18
1e
b0000000000101110 *
1K
1'
1,
#516
b0000000000101111 T
0Q
08
b0000000000101111 Y
b0000000000101111 #
0e
0K
0'
b0000000000101111 L
0,
#521
1Q
18
1e
b0000000000101111 *
1K
1'
1,
#526
b0000000000110000 T
0Q
08
b0000000000110000 Y
b0000000000110000 #
0e
0K
0'
b0000000000110000 L
0,
#531
1Q
18
1e
b0000000000110000 *
1K
1'
1,
#536
b0000000000110001 T
0Q
08
b0000000000110001 Y
b0000000000110001 #
0e
0K
0'
b0000000000110001 L
0,
#541
1Q
18
1e
b0000000000110001 *
1K
1'
1,
#546
b0000000000110010 T
0Q
08
b0000000000110010 Y
b0000000000110010 #
0e
0K
0'
b0000000000110010 L
0,
#551
1Q
18
1e
b0000000000110010 *
1K
1'
1,
#556
b0000000000110011 T
0Q
08
b0000000000110011 Y
b0000000000110011 #
0e
0K
0'
b0000000000110011 L
0,
#561
1Q
18
1e
b0000000000110011 *
1K
1'
1,
#566
b0000000000110100 T
0Q
08
b0000000000110100 Y
b0000000000110100 #
0e
0K
0'
b0000000000110100 L
0,
#571
1Q
18
1e
b0000000000110100 *
1K
1'
1,
#576
b0000000000110101 T
0Q
08
b0000000000110101 Y
b0000000000110101 #
0e
0K
0'
b0000000000110101 L
0,
#581
1Q
18
1e
b0000000000110101 *
1K
1'
1,
#586
b0000000000110110 T
0Q
08
b0000000000110110 Y
b0000000000110110 #
0e
0K
0'
b0000000000110110 L
0,
#591
1Q
18
1e
b0000000000110110 *
1K
1'
1,
#596
b0000000000110111 T
0Q
08
b0000000000110111 Y
b0000000000110111 #
0e
0K
0'
b0000000000110111 L
0,
#601
1Q
18
1e
b0000000000110111 *
1K
1'
1,
#606
b0000000000111000 T
0Q
08
b0000000000111000 Y
b0000000000111000 #
0e
0K
0'
b0000000000111000 L
0,
#611
1Q
18
1e
b0000000000111000 *
1K
1'
1,
#616
b0000000000111001 T
0Q
08
b0000000000111001 Y
b0000000000111001 #
0e
0K
0'
b0000000000111001 L
0,
#621
1Q
18
1e
b0000000000111001 *
1K
1'
1,
#626
b0000000000111010 T
0Q
08
b0000000000111010 Y
b0000000000111010 #
0e
0K
0'
b0000000000111010 L
0,
#631
1Q
18
1e
b0000000000111010 *
1K
1'
1,
#636
b0000000000111011 T
0Q
08
b0000000000111011 Y
b0000000000111011 #
0e
0K
0'
b0000000000111011 L
0,
#641
1Q
18
1e
b0000000000111011 *
1K
1'
1,
#646
b0000000000111100 T
0Q
08
b0000000000111100 Y
b0000000000111100 #
0e
0K
0'
b0000000000111100 L
0,
#651
1Q
18
1e
b0000000000111100 *
1K
1'
1,
#656
b0000000000111101 T
0Q
08
b0000000000111101 Y
b0000000000111101 #
0e
0K
0'
b0000000000111101 L
0,
#661
1Q
18
1e
b0000000000111101 *
1K
1'
1,
#666
b0000000000111110 T
0Q
08
b0000000000111110 Y
b0000000000111110 #
0e
0K
0'
b0000000000111110 L
0,
#671
1Q
18
1e
b0000000000111110 *
1K
1'
1,
#676
b0000000000111111 T
0Q
08
b0000000000111111 Y
b0000000000111111 #
0e
0K
0'
b0000000000111111 L
0,
#681
1Q
18
1e
b0000000000111111 *
1K
1'
1,
#686
b0000000001000000 T
0Q
08
b0000000001000000 Y
b0000000001000000 #
0e
0K
0'
b0000000001000000 L
0,
#691
1Q
18
1e
b0000000001000000 *
1K
1'
1,
#696
b0000000001000001 T
0Q
08
b0000000001000001 Y
b0000000001000001 #
0e
0K
0'
b0000000001000001 L
0,
#701
1Q
18
1e
b0000000001000001 *
1K
1'
1,
#706
b0000000001000010 T
0Q
08
b0000000001000010 Y
b0000000001000010 #
0e
0K
0'
b0000000001000010 L
0,
#711
1Q
18
1e
b0000000001000010 *
1K
1'
1,
#716
b0000000001000011 T
0Q
08
b0000000001000011 Y
b0000000001000011 #
0e
0K
0'
b0000000001000011 L
0,
#721
1Q
18
1e
b0000000001000011 *
1K
1'
1,
#726
b0000000001000100 T
0Q
08
b0000000001000100 Y
b0000000001000100 #
0e
0K
0'
b0000000001000100 L
0,
#731
1Q
18
1e
b0000000001000100 *
1K
1'
1,
#736
b0000000001000101 T
0Q
08
b0000000001000101 Y
b0000000001000101 #
0e
0K
0'
b0000000001000101 L
0,
#741
1Q
18
1e
b0000000001000101 *
1K
1'
1,
#746
b0000000001000110 T
0Q
08
b0000000001000110 Y
b0000000001000110 #
0e
0K
0'
b0000000001000110 L
0,
#751
1Q
18
1e
b0000000001000110 *
1K
1'
1,
#756
b0000000001000111 T
0Q
08
b0000000001000111 Y
b0000000001000111 #
0e
0K
0'
b0000000001000111 L
0,
#761
1Q
18
1e
b0000000001000111 *
1K
1'
1,
#766
b0000000001001000 T
0Q
08
b0000000001001000 Y
b0000000001001000 #
0e
0K
0'
b0000000001001000 L
0,
#771
1Q
18
1e
b0000000001001000 *
1K
1'
1,
#776
b0000000001001001 T
0Q
08
b0000000001001001 Y
b0000000001001001 #
0e
0K
0'
b0000000001001001 L
0,
#781
1Q
18
1e
b0000000001001001 *
1K
1'
1,
#786
b0000000001001010 T
0Q
08
b0000000001001010 Y
b0000000001001010 #
0e
0K
0'
b0000000001001010 L
0,
#791
1Q
18
1e
b0000000001001010 *
1K
1'
1,
#796
b0000000001001011 T
0Q
08
b0000000001001011 Y
b0000000001001011 #
0e
0K
0'
b0000000001001011 L
0,
#801
1Q
18
1e
b0000000001001011 *
1K
1'
1,
#806
b0000000001001100 T
0Q
08
b0000000001001100 Y
b0000000001001100 #
0e
0K
0'
b0000000001001100 L
0,
#811
1Q
18
1e
b0000000001001100 *
1K
1'
1,
#816
b0000000001001101 T
0Q
08
b0000000001001101 Y
b0000000001001101 #
0e
0K
0'
b0000000001001101 L
0,
#821
1Q
18
1e
b0000000001001101 *
1K
1'
1,
#826
b0000000001001110 T
0Q
08
b0000000001001110 Y
b0000000001001110 #
0e
0K
0'
b0000000001001110 L
0,
#831
1Q
18
1e
b0000000001001110 *
1K
1'
1,
#836
b0000000001001111 T
0Q
08
b0000000001001111 Y
b0000000001001111 #
0e
0K
0'
b0000000001001111 L
0,
#841
1Q
18
1e
b0000000001001111 *
1K
1'
1,
#846
b0000000001010000 T
0Q
08
b0000000001010000 Y
b0000000001010000 #
0e
0K
0'
b0000000001010000 L
0,
#851
1Q
18
1e
b0000000001010000 *
1K
1'
1,
#856
b0000000001010001 T
0Q
08
b0000000001010001 Y
b0000000001010001 #
0e
0K
0'
b0000000001010001 L
0,
#861
1Q
18
1e
b0000000001010001 *
1K
1'
1,
#866
b0000000001010010 T
0Q
08
b0000000001010010 Y
b0000000001010010 #
0e
0K
0'
b0000000001010010 L
0,
#871
1Q
18
1e
b0000000001010010 *
1K
1'
1,
#876
b0000000001010011 T
0Q
08
b0000000001010011 Y
b0000000001010011 #
0e
0K
0'
b0000000001010011 L
0,
#881
1Q
18
1e
b0000000001010011 *
1K
1'
1,
#886
b0000000001010100 T
0Q
08
b0000000001010100 Y
b0000000001010100 #
0e
0K
0'
b0000000001010100 L
0,
#891
1Q
18
1e
b0000000001010100 *
1K
1'
1,
#896
b0000000001010101 T
0Q
08
b0000000001010101 Y
b0000000001010101 #
0e
0K
0'
b0000000001010101 L
0,
#901
1Q
18
1e
b0000000001010101 *
1K
1'
1,
#906
b0000000001010110 T
0Q
08
b0000000001010110 Y
b0000000001010110 #
0e
0K
0'
b0000000001010110 L
0,
#911
1Q
18
1e
b0000000001010110 *
1K
1'
1,
#916
b0000000001010111 T
0Q
08
b0000000001010111 Y
b0000000001010111 #
0e
0K
0'
b0000000001010111 L
0,
#921
1Q
18
1e
b0000000001010111 *
1K
1'
1,
#926
b0000000001011000 T
0Q
08
b0000000001011000 Y
b0000000001011000 #
0e
0K
0'
b0000000001011000 L
0,
#931
1Q
18
1e
b0000000001011000 *
1K
1'
1,
#936
b0000000001011001 T
0Q
08
b0000000001011001 Y
b0000000001011001 #
0e
0K
0'
b0000000001011001 L
0,
#941
1Q
18
1e
b0000000001011001 *
1K
1'
1,
#946
b0000000001011010 T
0Q
08
b0000000001011010 Y
b0000000001011010 #
0e
0K
0'
b0000000001011010 L
0,
#951
1Q
18
1e
b0000000001011010 *
1K
1'
1,
#956
b0000000001011011 T
0Q
08
b0000000001011011 Y
b0000000001011011 #
0e
0K
0'
b0000000001011011 L
0,
#961
1Q
18
1e
b0000000001011011 *
1K
1'
1,
#966
b0000000001011100 T
0Q
08
b0000000001011100 Y
b0000000001011100 #
0e
0K
0'
b0000000001011100 L
0,
#971
1Q
18
1e
b0000000001011100 *
1K
1'
1,
#976
b0000000001011101 T
0Q
08
b0000000001011101 Y
b0000000001011101 #
0e
0K
0'
b0000000001011101 L
0,
#981
1Q
18
1e
b0000000001011101 *
1K
1'
1,
#986
b0000000001011110 T
0Q
08
b0000000001011110 Y
b0000000001011110 #
0e
0K
0'
b0000000001011110 L
0,
#991
1Q
18
1e
b0000000001011110 *
1K
1'
1,
#996
0Q
b00000000000000000000000011111111 %
b0000000001011111 Y
0K
0'
b00000000000000000000000011111111 E
b00000000000000000000000011111111 =
b0000000001011111 L
b0000000001011111 T
b00000000000000000000000011111111 ?
b00000000000000000000000011111111 "
08
b0000000001011111 #
0e
b00000000000000000000000011111111 ^
0,
#1001
1Q
b00000000000000000000000011111111 c
b00000000000000000000000011111111 J
18
1e
b0000000001011111 *
1K
1'
1,
#1006
0Q
b00000000000000000000000000000000 %
b0000000001100000 Y
0K
0'
b00000000000000000000000000000000 E
b00000000000000000000000000000000 =
b0000000001100000 L
b0000000001100000 T
b00000000000000000000000000000000 ?
b00000000000000000000000000000000 c
b00000000000000000000000000000000 "
08
b0000000001100000 #
0e
b00000000000000000000000000000000 ^
0,
#1011
1Q
b00000000000000000000000000000000 J
18
1e
b0000000001100000 *
1K
1'
1,
#1016
b0000000001100001 T
0Q
08
b0000000001100001 Y
b0000000001100001 #
0e
0K
0'
b0000000001100001 L
0,
#1021
1Q
18
1e
b0000000001100001 *
1K
1'
1,
#1026
b0000000001100010 T
0Q
08
b0000000001100010 Y
b0000000001100010 #
0e
0K
0'
b0000000001100010 L
0,
#1031
1Q
18
1e
b0000000001100010 *
1K
1'
1,
#1036
b0000000001100011 T
0Q
08
b0000000001100011 Y
b0000000001100011 #
0e
0K
0'
b0000000001100011 L
0,
#1041
1Q
18
1e
b0000000001100011 *
1K
1'
1,
#1046
b0000000001100100 T
0Q
08
b0000000001100100 Y
b0000000001100100 #
0e
0K
0'
b0000000001100100 L
0,
#1051
1Q
18
1e
b0000000001100100 *
1K
1'
1,
#1056
b0000000001100101 T
0Q
08
b0000000001100101 Y
b0000000001100101 #
0e
0K
0'
b0000000001100101 L
0,
#1061
1Q
18
1e
b0000000001100101 *
1K
1'
1,
#1066
b0000000001100110 T
0Q
08
b0000000001100110 Y
b0000000001100110 #
0e
0K
0'
b0000000001100110 L
0,
#1071
1Q
18
1e
b0000000001100110 *
1K
1'
1,
#1076
b0000000001100111 T
0Q
08
b0000000001100111 Y
b0000000001100111 #
0e
0K
0'
b0000000001100111 L
0,
#1081
1Q
18
1e
b0000000001100111 *
1K
1'
1,
#1086
0Q
b00000000000000000000000011111111 %
b0000000001101000 Y
0K
0'
b00000000000000000000000011111111 E
b00000000000000000000000011111111 =
b0000000001101000 L
b0000000001101000 T
b00000000000000000000000011111111 ?
b00000000000000000000000011111111 "
08
b0000000001101000 #
0e
b00000000000000000000000011111111 ^
0,
#1091
1Q
b00000000000000000000000011111111 c
b00000000000000000000000011111111 J
18
1e
b0000000001101000 *
1K
1'
1,
#1096
0Q
b00000000000000000000000000000000 %
b0000000001101001 Y
0K
0'
b00000000000000000000000000000000 E
b00000000000000000000000000000000 =
b0000000001101001 L
b0000000001101001 T
b00000000000000000000000000000000 ?
b00000000000000000000000000000000 c
b00000000000000000000000000000000 "
08
b0000000001101001 #
0e
b00000000000000000000000000000000 ^
0,
#1101
1Q
b00000000000000000000000000000000 J
18
1e
b0000000001101001 *
1K
1'
1,
#1106
b0000000001101010 T
0Q
08
b0000000001101010 Y
b0000000001101010 #
0e
0K
0'
b0000000001101010 L
0,
#1111
1Q
18
1e
b0000000001101010 *
1K
1'
1,
#1116
b0000000001101011 T
0Q
08
b0000000001101011 Y
b0000000001101011 #
0e
0K
0'
b0000000001101011 L
0,
#1121
1Q
18
1e
b0000000001101011 *
1K
1'
1,
#1126
b0000000001101100 T
0Q
08
b0000000001101100 Y
b0000000001101100 #
0e
0K
0'
b0000000001101100 L
0,
#1131
1Q
18
1e
b0000000001101100 *
1K
1'
1,
#1136
b0000000001101101 T
0Q
08
b0000000001101101 Y
b0000000001101101 #
0e
0K
0'
b0000000001101101 L
0,
#1141
1Q
18
1e
b0000000001101101 *
1K
1'
1,
#1146
b0000000001101110 T
0Q
08
b0000000001101110 Y
b0000000001101110 #
0e
0K
0'
b0000000001101110 L
0,
#1151
1Q
18
1e
b0000000001101110 *
1K
1'
1,
#1156
b0000000001101111 T
0Q
08
b0000000001101111 Y
b0000000001101111 #
0e
0K
0'
b0000000001101111 L
0,
#1161
1Q
18
1e
b0000000001101111 *
1K
1'
1,
#1166
b0000000001110000 T
0Q
08
b0000000001110000 Y
b0000000001110000 #
0e
0K
0'
b0000000001110000 L
0,
#1171
1Q
18
1e
b0000000001110000 *
1K
1'
1,
#1176
b0000000001110001 T
0Q
08
b0000000001110001 Y
b0000000001110001 #
0e
0K
0'
b0000000001110001 L
0,
#1181
1Q
18
1e
b0000000001110001 *
1K
1'
1,
#1186
0Q
b00000000000000000000000011111111 %
b0000000001110010 Y
0K
0'
b00000000000000000000000011111111 E
b00000000000000000000000011111111 =
b0000000001110010 L
b0000000001110010 T
b00000000000000000000000011111111 ?
b00000000000000000000000011111111 "
08
b0000000001110010 #
0e
b00000000000000000000000011111111 ^
0,
#1191
1Q
b00000000000000000000000011111111 c
b00000000000000000000000011111111 J
18
1e
b0000000001110010 *
1K
1'
1,
#1196
b0000000001110011 T
0Q
b00000000000000000000000000000000 c
08
b0000000001110011 Y
b0000000001110011 #
0e
0K
0'
b0000000001110011 L
0,
#1201
1Q
b00000000000000000000000011111111 c
18
1e
b0000000001110011 *
1K
1'
1,
#1206
b0000000001110100 T
0Q
b00000000000000000000000000000000 c
08
b0000000001110100 Y
b0000000001110100 #
0e
0K
0'
b0000000001110100 L
0,
#1211
1Q
b00000000000000000000000011111111 c
18
1e
b0000000001110100 *
1K
1'
1,
#1216
0Q
b00000000000000000000000000000000 %
b0000000001110101 Y
0K
0'
b00000000000000000000000000000000 E
b00000000000000000000000000000000 =
b0000000001110101 L
b0000000001110101 T
b00000000000000000000000000000000 ?
b00000000000000000000000000000000 c
b00000000000000000000000000000000 "
08
b0000000001110101 #
0e
b00000000000000000000000000000000 ^
0,
#1221
1Q
b00000000000000000000000000000000 J
18
1e
b0000000001110101 *
1K
1'
1,
#1226
b0000000001110110 T
0Q
08
b0000000001110110 Y
b0000000001110110 #
0e
0K
0'
b0000000001110110 L
0,
#1231
1Q
18
1e
b0000000001110110 *
1K
1'
1,
#1236
b0000000001110111 T
0Q
08
b0000000001110111 Y
b0000000001110111 #
0e
0K
0'
b0000000001110111 L
0,
#1241
1Q
18
1e
b0000000001110111 *
1K
1'
1,
#1246
b0000000001111000 T
0Q
08
b0000000001111000 Y
b0000000001111000 #
0e
0K
0'
b0000000001111000 L
0,
#1251
1Q
18
1e
b0000000001111000 *
1K
1'
1,
#1256
b0000000001111001 T
0Q
08
b0000000001111001 Y
b0000000001111001 #
0e
0K
0'
b0000000001111001 L
0,
#1261
1Q
18
1e
b0000000001111001 *
1K
1'
1,
#1266
b0000000001111010 T
0Q
08
b0000000001111010 Y
b0000000001111010 #
0e
0K
0'
b0000000001111010 L
0,
#1271
1Q
18
1e
b0000000001111010 *
1K
1'
1,
#1276
0Q
b00000000000000000000000011111111 %
b0000000001111011 Y
0K
0'
b00000000000000000000000011111111 E
b00000000000000000000000011111111 =
b0000000001111011 L
b0000000001111011 T
b00000000000000000000000011111111 ?
b00000000000000000000000011111111 "
08
b0000000001111011 #
0e
b00000000000000000000000011111111 ^
0,
#1281
1Q
b00000000000000000000000011111111 c
b00000000000000000000000011111111 J
18
1e
b0000000001111011 *
1K
1'
1,
#1286
b0000000001111100 T
0Q
b00000000000000000000000000000000 c
08
b0000000001111100 Y
b0000000001111100 #
0e
0K
0'
b0000000001111100 L
0,
#1291
1Q
b00000000000000000000000011111111 c
18
1e
b0000000001111100 *
1K
1'
1,
#1296
b0000000001111101 T
0Q
b00000000000000000000000000000000 c
08
b0000000001111101 Y
b0000000001111101 #
0e
0K
0'
b0000000001111101 L
0,
#1301
1Q
b00000000000000000000000011111111 c
18
1e
b0000000001111101 *
1K
1'
1,
